{
	"enrollment": [{
		"id": "srkole",
		"name": "SRKOLE"
	},{
		"id": "retirement",
		"name": "Retirement"
	},{
		"id": "saosda",
		"name": "SA OSDA"
	},{
		"id": "ope",
		"name": "OPE"
	}],
	
	"address": [{
		"id": "true",
		"name": "With Res Address"
	}, {
		"id": "false",
		"name": "Without Res Address"
	}]
}